Introduction of geneHapR
…
##  Removed: 4  C12, C16, C29, C33
##  Remain:  33
## 
## hap frequences:
## H001 H002 H003 H004 H005 H006 H007 H008 H009 
##   10    8    4    4    2    2    1    1    1 
## 
## Options:
##  hapPrefix:  H
##  CHROM:      scaffold_1
##  POS:        4300-6856
##  hyb_remove: YES
##  NA_remove:  YES
## 
## # A tibble: 37 × 11
##    Hap    `4300`     `4345`     `4879` `4910` `4950` `5037` `5209` `5213` `6856`
##    <chr>  <chr>      <chr>      <chr>  <chr>  <chr>  <chr>  <chr>  <chr>  <chr> 
##  1 CHR    scaffold_1 scaffold_1 scaff… scaff… scaff… scaff… scaff… scaff… scaff…
##  2 POS    4300       4345       4879   4910   4950   5037   5209   5213   6856  
##  3 INFO   <NA>       <NA>       <NA>   <NA>   <NA>   <NA>   <NA>   <NA>   <NA>  
##  4 ALLELE G/C        T/A,GG     T/A,G  GCCTA… T/AA,… A/AA,… A/AC   C/G    A/G   
##  5 H001   G          T          T      GCCTA  T      A      A      C      A     
##  6 H001   G          T          T      GCCTA  T      A      A      C      A     
##  7 H001   G          T          T      GCCTA  T      A      A      C      A     
##  8 H001   G          T          T      GCCTA  T      A      A      C      A     
##  9 H001   G          T          T      GCCTA  T      A      A      C      A     
## 10 H001   G          T          T      GCCTA  T      A      A      C      A     
## # … with 27 more rows, and 1 more variable: Accession <chr>
…
